{
    "bootoptions" : {
        "createUrl" : "/create",

        "createPostUrl" : "/createpost",
        "observeUrl" : "/observe",
        "collectUrl" : "/collect",
        "clientPostUrl": "/collectpost",
        "observePostUrl": "/observepost",
        "observeone": "/observeone",
        "dbName" : "tryone",
        "port": ":10000",
        "appurl": "http://localhost:10000"
    },
    "dataLoc" : ""
}