name,phone,email,mc,dot,street,state,city,dot_apply_date,mc_appy_date,mc_grant_date,power_unit,driver_total,mcs_file_date
koby sam llc,3807995310,koby@pcarriers.com,1063855,3338209,1425 E dublin granville,oh,columbus,,,,,,
koby sm inc,6148520149,kobysam7@gmail.com,1063855,3435019,1425 E dub,OH,Cincintati,,,,,,
kobysam ab,3807995310,pcarriersonline@yahoo.com,1068855,3435500,1425 e digb ,OH,ksocm,,,,,,
oosss ajjjs,3807995310,abasahsam@yahoo.com,1065012,3435566,fairfield ,OH,Fairfiled,,,,,,