module github.com/qobbysam/fileserver

go 1.17

require (
	github.com/go-chi/chi v1.5.4
	github.com/go-chi/cors v1.2.0
	github.com/lithammer/shortuuid v3.0.0+incompatible
	github.com/minio/minio-go/v7 v7.0.21
	github.com/smallnest/rpcx v1.7.1
)

require (
	github.com/akutz/memconn v0.1.0 // indirect
	github.com/apache/thrift v0.14.0 // indirect
	github.com/armon/go-metrics v0.3.6 // indirect
	github.com/cenk/backoff v2.2.1+incompatible // indirect
	github.com/cenkalti/backoff v2.2.1+incompatible // indirect
	github.com/cespare/xxhash/v2 v2.1.1 // indirect
	github.com/cheekybits/genny v1.0.0 // indirect
	github.com/dgryski/go-jump v0.0.0-20170409065014-e1f439676b57 // indirect
	github.com/dgryski/go-rendezvous v0.0.0-20200823014737-9f7001d12a5f // indirect
	github.com/dustin/go-humanize v1.0.0 // indirect
	github.com/edwingeng/doublejump v0.0.0-20200219153503-7cfc0ed6e836 // indirect
	github.com/facebookgo/clock v0.0.0-20150410010913-600d898af40a // indirect
	github.com/fatih/color v1.10.0 // indirect
	github.com/fsnotify/fsnotify v1.4.9 // indirect
	github.com/go-logr/logr v1.2.1 // indirect
	github.com/go-logr/stdr v1.2.0 // indirect
	github.com/go-ping/ping v0.0.0-20201115131931-3300c582a663 // indirect
	github.com/go-redis/redis/v8 v8.8.2 // indirect
	github.com/go-task/slim-sprig v0.0.0-20210107165309-348f09dbbbc0 // indirect
	github.com/gogo/protobuf v1.3.1 // indirect
	github.com/golang/snappy v0.0.2 // indirect
	github.com/google/uuid v1.1.2 // indirect
	github.com/grandcat/zeroconf v0.0.0-20180329153754-df75bb3ccae1 // indirect
	github.com/hashicorp/consul/api v1.8.1 // indirect
	github.com/hashicorp/errwrap v1.0.0 // indirect
	github.com/hashicorp/go-cleanhttp v0.5.2 // indirect
	github.com/hashicorp/go-hclog v0.16.0 // indirect
	github.com/hashicorp/go-immutable-radix v1.3.0 // indirect
	github.com/hashicorp/go-multierror v1.1.0 // indirect
	github.com/hashicorp/go-rootcerts v1.0.2 // indirect
	github.com/hashicorp/golang-lru v0.5.4 // indirect
	github.com/hashicorp/serf v0.9.5 // indirect
	github.com/json-iterator/go v1.1.10 // indirect
	github.com/jtolds/gls v4.20.0+incompatible // indirect
	github.com/juju/ratelimit v1.0.1 // indirect
	github.com/julienschmidt/httprouter v1.3.0 // indirect
	github.com/kavu/go_reuseport v1.5.0 // indirect
	github.com/klauspost/compress v1.13.5 // indirect
	github.com/klauspost/cpuid v1.3.1 // indirect
	github.com/klauspost/cpuid/v2 v2.0.2 // indirect
	github.com/klauspost/reedsolomon v1.9.10 // indirect
	github.com/lucas-clemente/quic-go v0.23.0 // indirect
	github.com/marten-seemann/qtls-go1-16 v0.1.4 // indirect
	github.com/marten-seemann/qtls-go1-17 v0.1.0 // indirect
	github.com/mattn/go-colorable v0.1.8 // indirect
	github.com/mattn/go-isatty v0.0.12 // indirect
	github.com/miekg/dns v1.1.26 // indirect
	github.com/minio/md5-simd v1.1.0 // indirect
	github.com/minio/sha256-simd v0.1.1 // indirect
	github.com/mitchellh/go-homedir v1.1.0 // indirect
	github.com/mitchellh/mapstructure v1.4.1 // indirect
	github.com/modern-go/concurrent v0.0.0-20180306012644-bacd9c7ef1dd // indirect
	github.com/modern-go/reflect2 v1.0.1 // indirect
	github.com/nxadm/tail v1.4.8 // indirect
	github.com/onsi/ginkgo v1.16.4 // indirect
	github.com/philhofer/fwd v1.1.1 // indirect
	github.com/pkg/errors v0.9.1 // indirect
	github.com/rpcxio/libkv v0.5.1-0.20210420120011-1fceaedca8a5 // indirect
	github.com/rs/cors v1.8.2 // indirect
	github.com/rs/xid v1.2.1 // indirect
	github.com/rubyist/circuitbreaker v2.2.1+incompatible // indirect
	github.com/samuel/go-zookeeper v0.0.0-20201211165307-7117e9ea2414 // indirect
	github.com/sirupsen/logrus v1.8.1 // indirect
	github.com/smallnest/quick v0.0.0-20200505103731-c8c83f9c76d3 // indirect
	github.com/smartystreets/assertions v1.2.1 // indirect
	github.com/soheilhy/cmux v0.1.4 // indirect
	github.com/templexxx/cpufeat v0.0.0-20180724012125-cef66df7f161 // indirect
	github.com/templexxx/xor v0.0.0-20191217153810-f85b25db303b // indirect
	github.com/tinylib/msgp v1.1.6 // indirect
	github.com/tjfoc/gmsm v1.4.0 // indirect
	github.com/valyala/bytebufferpool v1.0.0 // indirect
	github.com/valyala/fastrand v0.0.0-20170531153657-19dd0f0bf014 // indirect
	github.com/vmihailenco/msgpack/v5 v5.3.4 // indirect
	github.com/vmihailenco/tagparser/v2 v2.0.0 // indirect
	github.com/xtaci/kcp-go v5.4.20+incompatible // indirect
	go.opentelemetry.io/otel v1.3.0 // indirect
	go.opentelemetry.io/otel/internal/metric v0.26.0 // indirect
	go.opentelemetry.io/otel/metric v0.26.0 // indirect
	go.opentelemetry.io/otel/trace v1.3.0 // indirect
	golang.org/x/crypto v0.0.0-20201216223049-8b5274cf687f // indirect
	golang.org/x/mod v0.4.2 // indirect
	golang.org/x/net v0.0.0-20210428140749-89ef3d95e781 // indirect
	golang.org/x/sync v0.0.0-20210220032951-036812b2e83c // indirect
	golang.org/x/sys v0.0.0-20210510120138-977fb7262007 // indirect
	golang.org/x/text v0.3.6 // indirect
	golang.org/x/tools v0.1.1 // indirect
	golang.org/x/xerrors v0.0.0-20200804184101-5ec99f83aff1 // indirect
	google.golang.org/protobuf v1.26.0 // indirect
	gopkg.in/ini.v1 v1.57.0 // indirect
	gopkg.in/tomb.v1 v1.0.0-20141024135613-dd632973f1e7 // indirect
)
