{
    "data": [
        "run passed oLgjeMfwAzCSMkuUGYW3Lj",
        "run passed oLgjeMfwAzCSMkuUGYW3Lj",
        "run passed oLgjeMfwAzCSMkuUGYW3Lj",
        "run passed oLgjeMfwAzCSMkuUGYW3Lj"
    ],
    "pop": 600
}