{
    "n": "mvocmAeqP8DPEcB0Bp7UMaN7hf03leeUNtI3brI_VRx8VxWK_x98us1sWxLWPXN06vWaYo8ZBUTT4LLeWQuVKBh0y3Fr-0mw5L7ZBsdewnH2PLAoAwshnX70C39zJjqTGXPqgrjOwnrRijLph6GHIXqujJLKtKsMWFDUa7lE5u_b4HSUFFaippAXLupRfp0YvmjCyUadz1uXG8QbcttOqcutzfRPQ_RSORIp5WD26ArbXywEDYwgSFtoRFvMWeq_4UfY18FhJBdg8FZA_N7QjLSBGAxKwA4aJ017hTU6K3paFAYxiqTDRwfFlKibwA3_OdqbPC2OJXNsSYjVSwy60w",
    "e": "AQAB",
    "d": "XOheZgIKXYgAW3sN0746JbwFXHFOdo7LewYRd0piz2pxXF-s4X-F7hMix4KGb3ac_BLbSATTkiYOA2IYDDf2ZoAq3KAVhSNLagbD4t15AIcDgKR2iESPFXU7Zv00EhIBh7vHNjEGuu6YWgplmAsNENQUem-yGBeHIhbrEd2S4gKw7GPSOI0rMs9UNalc1RnJbaOdkDJRzeVV0hXVqew3GK1yxqikEVUU7ZaYGv4lOwOmRvoBRtzYXHhV2fDCVLYwhhx-ZVxPePWz0iFlOh-YV9N3iZt89UpxvhvVke2_HXR2VDAJozme_IybdK7zmje6WARzBhYBG8q7XXHd_c3tqQ",
    "p": "yhzqWkr7XwN78sOLqPFF4sxRz-cWTnA90QyAJOke54ULl36mhLiZr1TK-bLzMgrKuT-uccIwFNf1zKzmKxYSqQeTscNmp3gMz2JMeMPxKv3mcQscw78qqAWNF64Rz0a4W3J1EfxDYIBXzkVyKFFJ8lEIYu5OsUAC3VwlSC_2ap8",
    "q": "xEv2mxq5N6k9PMaODsnvCfRgXHXo24nW8SphStkIxKcb2LIMYx5ymzYytFwq4Et5D2LNuIyzCt0VLlHO1Gk_fmeDjetshw_ZddTEGYD7PFTFD94bNlUip9M5wyLCRd6QYnZWq8ZegSUust2I-njPocPWtzCTQ9xMjQYGDzPpt00",
    "dp": "LEOS6716Of_YWH2NC63zoU0gKckxcHJSh4MWWX8Yvpm7xSz-qRiIyAZpAbC4ZGBKr7GLsexWfWoisfW33v3RjmVTal4iEFFRdOXRW62GFuVOX7mQTiqC3BODKAl-awfQ_m4dx5eY5fyVvl4lN0E-Uax_irMoVtdvCS3SGHIwpH8",
    "dq": "rkwFHJQOAi50AZMMcHU9m0kyhubrbIRoJpvK5_runi8DutXdyeUvPkJRo3RzXdWmGNNSd5v3Hp5QQGDDljgd-M9RMKLqKsMYBFh4B21Pp7JdiElfQE84Bmy3zVz_w6pr6gHJ05zALUwmuwuapUzAkJKkBOVM3eSu1EmU98rQq8E",
    "qi": "EnXH6C6vHmalRSyAFFVZe0gxNrZPLWVzKCbTR3U78k-r6Q8WwBjE3C_17wXWT7We7jRb3bw4MeSZv3pPgMhWPmpW2cSfToajuMVWuhicgKU77A9OMPtZnvEkDMMGeyg5PJ816jpRl__0caHtlZWK2pft5KefHapfWCiQP5OVEME",
    "kty": "RSA"
}